IMDB Movie Reviews Classification
…
── Training information 

Training data contained 37500 data points and no incomplete rows.

── Operations 

• Text feature extraction for: review | Trained

• Zero variance filter removed: textfeature_review_politeness, ... | Trained

• Centering and scaling for: textfeature_review_n_words, ... | Trained

juice(imdb_prep) # extract transformed training set

# A tibble: 37,500 × 20
   sentiment textfeature_review_n_words textfeature_review_n_uq_words
   <fct>                          <dbl>                         <dbl>
 1 negative                     -0.177                        -0.157 
 2 negative                      2.89                          2.91  
 3 positive                     -0.632                        -0.605 
 4 negative                     -0.154                        -0.113 
 5 positive                      1.93                          2.11  
 6 positive                     -0.662                        -0.616 
 7 positive                      2.76                          2.87  
 8 positive                     -0.586                        -0.703 
 9 positive                     -0.0196                        0.0289
10 negative                     -0.206                        -0.222 
# ℹ 37,490 more rows
# ℹ 17 more variables: textfeature_review_n_charS <dbl>,
#   textfeature_review_n_uq_charS <dbl>, textfeature_review_n_digits <dbl>,
#   textfeature_review_n_hashtags <dbl>,
#   textfeature_review_n_uq_hashtags <dbl>,
#   textfeature_review_n_mentions <dbl>,
#   textfeature_review_n_uq_mentions <dbl>, …
…
